{
  "$schema": "https://json.schemastore.org/launchsettings.json",
  "profiles": {
    "refactoring": {
      "commandName": "Project",
      "launchUrl": "swagger",
      "environmentVariables": {
        "ASPNETCORE_ENVIRONMENT": "Development"
      },
      "applicationUrl": "http://localhost:1234",
      "dotnetRunMessages": true
    }
  }
}